509690858;;VZ21A;20110413;04;N;0620000214186201;PT000214186201;02;19;F;20110413;20110413;;;;;I;
509690858;;VZ21A;20110413;04;N;0620000014186202;PT000014186202;02;19;F;20110413;20110413;;;;;I;
509690858;;VZ21A;20110413;04;N;0620000414186205;PT000414186205;02;19;F;20110413;20110413;;;;;I;
509690858;;VZ21A;20110413;04;N;0620000814186203;PT000814186203;02;19;F;20110413;20110413;;;;;I;
509690858;;VZ21A;20110413;04;N;0620000614186204;PT000614186204;02;19;F;20110413;20110413;;;;;I;
